Broken quartus projects/RGB_TO_HSV/waves.vcd
$date
	Fri Jun 03 11:58:34 2022
$end
$version
	Icarus Verilog
$end
$timescale
	1s
$end
$scope module RGB_TO_HSV_COMB_TB $end
$var wire 24 ! hsv [23:0] $end
$var reg 24 " rgb [23:0] $end
$scope module dut $end
$var wire 24 # rgb [23:0] $end
$var reg 9 $ blue [8:0] $end
$var reg 9 % bmr [8:0] $end
$var reg 8 & cmax [7:0] $end
$var reg 8 ' cmin [7:0] $end
$var reg 8 ( delta [7:0] $end
$var reg 9 ) gmb [8:0] $end
$var reg 9 * green [8:0] $end
$var reg 24 + hsv [23:0] $end
$var reg 8 , hue [7:0] $end
$var reg 35 - hue_step1 [34:0] $end
$var reg 9 . red [8:0] $end
$var reg 9 / rmg [8:0] $end
$var reg 8 0 saturation [7:0] $end
$var reg 32 1 saturation_intermediate_a [31:0] $end
$var reg 32 2 saturation_intermediate_b [31:0] $end
$var reg 24 3 saturation_lookup [23:0] $end
$var reg 8 4 value [7:0] $end
$scope begin $ivl_for_loop0 $end
$var integer 32 5 i [31:0] $end
$upscope $end
$upscope $end
$scope begin $unm_blk_13 $end
$var real 1 6 blue $end
$var real 1 7 cmax $end
$var real 1 8 cmin $end
$var integer 32 9 count [31:0] $end
$var real 1 : delta $end
$var integer 32 ; err [31:0] $end
$var integer 32 < fix_hue [31:0] $end
$var integer 32 = fix_saturation [31:0] $end
$var integer 32 > fix_value [31:0] $end
$var real 1 ? green $end
$var real 1 @ hue $end
$var real 1 A red $end
$var real 1 B saturation $end
$var integer 32 C sqerr [31:0] $end
$var integer 32 D step [31:0] $end
$var real 1 E value $end
$scope begin $ivl_for_loop1 $end
$var integer 32 F r [31:0] $end
$scope begin $ivl_for_loop2 $end
$var integer 32 G g [31:0] $end
$scope begin $ivl_for_loop3 $end
$var integer 32 H b [31:0] $end
$upscope $end
$upscope $end
$upscope $end
$upscope $end
$upscope $end
$enddefinitions $end
#0
$dumpvars
b0 H
b0 G
b0 F
r0 E
b1000000 D
b0 C
r0 B
r0 A
r0 @
r0 ?
b0 >
b0 =
b0 <
b0 ;
r0 :
b0 9
r0 8
r0 7
r0 6
b100000000 5
bx 4
bx 3
b0xxxxxxxx 2
bx 1
bx 0
bx /
b0xxxxxxxx .
bx -
bx ,
bx +
b0xxxxxxxx *
bx )
bx (
bx '
bx &
bx %
b0xxxxxxxx $
bx #
bx "
bx !
$end
#3
b0 !
b0 +
b0 4
b0 0
b0 3
b0 2
b0 1
b0 ,
b0 -
b0 (
b0 '
b0 &
b0 /
b0 %
b0 )
b0 $
b0 *
b0 .
b0 "
b0 #
#6
r255 B
r120 @
r64 E
r0.2509803921568627 :
r0.2509803921568627 7
r0.2509803921568627 6
b1000000 H
#7
b11110001111111101000000 !
b11110001111111101000000 +
b1000000 4
b11111111 0
b1000000000000000000 3
b11111111 2
b1000000000000000000000000 1
b1111000 ,
b100000000000000000000000000 -
b1000000 (
b1000000 &
b1000000 %
b111000000 )
b1000000 $
b1000000 "
b1000000 #
#10
r128 E
r0.5019607843137255 :
r0.5019607843137255 7
r0.5019607843137255 6
b10000000 H
b1000000 >
b11111111 =
b1111000 <
#11
b11110001111111110000000 !
b11110001111111110000000 +
b10000000 4
b100000000000000000 3
b10000000 (
b10000000 &
b10000000 %
b110000000 )
b10000000 $
b10000000 "
b10000000 #
#14
r192 E
r0.7529411764705882 :
r0.7529411764705882 7
r0.7529411764705882 6
b11000000 H
b10000000 >
#15
b11110001111111011000000 !
b11110001111111011000000 +
b11000000 4
b11111110 0
b10101010101010101 3
b11111110 2
b111111111111111111000000 1
b11000000 (
b11000000 &
b11000000 %
b101000000 )
b11000000 $
b11000000 "
b11000000 #
#18
r60 @
r64 E
r0.2509803921568627 :
r0.2509803921568627 7
r0 6
r0.2509803921568627 ?
b1000000 G
b0 H
b1 C
b1 ;
b11000000 >
b11111110 =
#19
b1111001111111101000000 !
b1111001111111101000000 +
b1000000 4
b11111111 0
b1000000000000000000 3
b11111111 2
b1000000000000000000000000 1
b111100 ,
b10000000000000000000000000 -
b1000000 (
b1000000 &
b111000000 /
b0 %
b1000000 )
b0 $
b1000000 *
b100000000000000 "
b100000000000000 #
#22
r90 @
r0.2509803921568627 6
b1000000 H
b0 ;
b1000000 >
b11111111 =
b111100 <
#23
b10110101111111101000000 !
b10110101111111101000000 +
b1011010 ,
b11000000000000000000000000 -
b1000000 %
b0 )
b1000000 $
b100000001000000 "
b100000001000000 #
#26
r105 @
r128 E
r0.5019607843137255 :
r0.5019607843137255 7
r0.5019607843137255 6
b10000000 H
b1011010 <
#27
b11010011111111110000000 !
b11010011111111110000000 +
b10000000 4
b100000000000000000 3
b1101001 ,
b11100000000000000000000000 -
b10000000 (
b10000000 &
b10000000 %
b111000000 )
b10000000 $
b100000010000000 "
b100000010000000 #
#30
r110 @
r192 E
r0.7529411764705882 :
r0.7529411764705882 7
r0.7529411764705882 6
b11000000 H
b10000000 >
b1101001 <
#31
b11011101111111011000000 !
b11011101111111011000000 +
b11000000 4
b11111110 0
b10101010101010101 3
b11111110 2
b111111111111111111000000 1
b1101110 ,
b11101010101010101011000000 -
b11000000 (
b11000000 &
b11000000 %
b110000000 )
b11000000 $
b100000011000000 "
b100000011000000 #
#34
r60 @
r128 E
r0.5019607843137255 :
r0.5019607843137255 7
r0 6
r0.5019607843137255 ?
b10000000 G
b0 H
b10 C
b1 ;
b11000000 >
b11111110 =
b1101110 <
#35
b1111001111111110000000 !
b1111001111111110000000 +
b10000000 4
b11111111 0
b100000000000000000 3
b11111111 2
b1000000000000000000000000 1
b111100 ,
b10000000000000000000000000 -
b10000000 (
b10000000 &
b110000000 /
b0 %
b10000000 )
b0 $
b10000000 *
b1000000000000000 "
b1000000000000000 #
#38
r75 @
r0.2509803921568627 6
b1000000 H
b0 ;
b10000000 >
b11111111 =
b111100 <
#39
b10010111111111110000000 !
b10010111111111110000000 +
b1001011 ,
b10100000000000000000000000 -
b1000000 %
b1000000 )
b1000000 $
b1000000001000000 "
b1000000001000000 #
#42
r90 @
r0.5019607843137255 6
b10000000 H
b1001011 <
#43
b10110101111111110000000 !
b10110101111111110000000 +
b1011010 ,
b11000000000000000000000000 -
b10000000 %
b0 )
b10000000 $
b1000000010000000 "
b1000000010000000 #
#46
r100 @
r192 E
r0.7529411764705882 :
r0.7529411764705882 7
r0.7529411764705882 6
b11000000 H
b1011010 <
#47
b11001001111111011000000 !
b11001001111111011000000 +
b11000000 4
b11111110 0
b10101010101010101 3
b11111110 2
b111111111111111111000000 1
b1100100 ,
b11010101010101010110000000 -
b11000000 (
b11000000 &
b11000000 %
b111000000 )
b11000000 $
b1000000011000000 "
b1000000011000000 #
#50
r60 @
r0 6
r0.7529411764705882 ?
b11000000 G
b0 H
b11 C
b1 ;
b11000000 >
b11111110 =
b1100100 <
#51
b1111001111111011000000 !
b1111001111111011000000 +
b111100 ,
b10000000000000000000000000 -
b101000000 /
b0 %
b11000000 )
b0 $
b11000000 *
b1100000000000000 "
b1100000000000000 #
#54
r70 @
r0.2509803921568627 6
b1000000 H
b100 C
b111100 <
#55
b10001011111111011000000 !
b10001011111111011000000 +
b1000101 ,
b10010101010101010101000000 -
b1000000 %
b10000000 )
b1000000 $
b1100000001000000 "
b1100000001000000 #
#58
r80 @
r0.5019607843137255 6
b10000000 H
b110 C
b10 ;
b1000101 <
#59
b10011111111111011000000 !
b10011111111111011000000 +
b1001111 ,
b10101010101010101010000000 -
b10000000 %
b1000000 )
b10000000 $
b1100000010000000 "
b1100000010000000 #
#62
r90 @
r0.7529411764705882 6
b11000000 H
b1000 C
b1001111 <
#63
b10110011111111011000000 !
b10110011111111011000000 +
b1011001 ,
b10111111111111111111000000 -
b11000000 %
b0 )
b11000000 $
b1100000011000000 "
b1100000011000000 #
#66
r0 @
r64 E
r0.2509803921568627 :
r0.2509803921568627 7
r0 6
r0 ?
r0.2509803921568627 A
b1000000 F
b0 G
b0 H
b1010 C
b1011001 <
#67
b1111111101000000 !
b1111111101000000 +
b1000000 4
b11111111 0
b1000000000000000000 3
b11111111 2
b1000000000000000000000000 1
b0 ,
b0 -
b1000000 (
b1000000 &
b1000000 /
b111000000 %
b0 $
b0 *
b1000000 .
b10000000000000000000000 "
b10000000000000000000000 #
#70
r150 @
r0.2509803921568627 6
b1000000 H
b0 ;
b1000000 >
b11111111 =
b0 <
#71
b100101101111111101000000 !
b100101101111111101000000 +
b10010110 ,
b101000000000000000000000000 -
b0 %
b111000000 )
b1000000 $
b10000000000000001000000 "
b10000000000000001000000 #
#74
r135 @
r128 E
r0.5019607843137255 :
r0.5019607843137255 7
r0.5019607843137255 6
b10000000 H
b10010110 <
#75
b100001111111111110000000 !
b100001111111111110000000 +
b10000000 4
b100000000000000000 3
b10000111 ,
b100100000000000000000000000 -
b10000000 (
b10000000 &
b1000000 %
b110000000 )
b10000000 $
b10000000000000010000000 "
b10000000000000010000000 #
#78
r130 @
r192 E
r0.7529411764705882 :
r0.7529411764705882 7
r0.7529411764705882 6
b11000000 H
b10000000 >
b10000111 <
#79
b100000011111111011000000 !
b100000011111111011000000 +
b11000000 4
b11111110 0
b10101010101010101 3
b11111110 2
b111111111111111111000000 1
b10000001 ,
b100010101010101010101000000 -
b11000000 (
b11000000 &
b10000000 %
b101000000 )
b11000000 $
b10000000000000011000000 "
b10000000000000011000000 #
#82
r30 @
r64 E
r0.2509803921568627 :
r0.2509803921568627 7
r0 6
r0.2509803921568627 ?
b1000000 G
b0 H
b1100 C
b10 ;
b11000000 >
b11111110 =
b10000001 <
#83
b111101111111101000000 !
b111101111111101000000 +
b1000000 4
b11111111 0
b1000000000000000000 3
b11111111 2
b1000000000000000000000000 1
b11110 ,
b1000000000000000000000000 -
b1000000 (
b1000000 &
b0 /
b111000000 %
b1000000 )
b0 $
b1000000 *
b10000000100000000000000 "
b10000000100000000000000 #
#86
r0 B
r0 @
r0 :
r0.2509803921568627 8
r0.2509803921568627 6
b1000000 H
b0 ;
b1000000 >
b11111111 =
b11110 <
#87
b1000000 !
b1000000 +
b0 0
b0 2
b0 1
b0 ,
b0 -
b0 (
b1000000 '
b0 %
b0 )
b1000000 $
b10000000100000001000000 "
b10000000100000001000000 #
#90
r128 B
r120 @
r128 E
r0.2509803921568627 :
r0.5019607843137255 7
r0.5019607843137255 6
b10000000 H
b0 =
b0 <
#91
b11110000111111110000000 !
b11110000111111110000000 +
b10000000 4
b1111111 0
b100000000000000000 3
b1111111 2
b100000000000000000000000 1
b1111000 ,
b100000000000000000000000000 -
b1000000 (
b10000000 &
b1000000 %
b111000000 )
b10000000 $
b10000000100000010000000 "
b10000000100000010000000 #
#94
r170 B
r192 E
r0.5019607843137255 :
r0.7529411764705882 7
r0.7529411764705882 6
b11000000 H
b1101 C
b1 ;
b10000000 >
b1111111 =
b1111000 <
#95
b11110001010100111000000 !
b11110001010100111000000 +
b11000000 4
b10101001 0
b10101010101010101 3
b10101001 2
b101010101010101010000000 1
b10000000 (
b11000000 &
b10000000 %
b110000000 )
b11000000 $
b10000000100000011000000 "
b10000000100000011000000 #
#98
r255 B
r45 @
r128 E
r0.5019607843137255 7
r0 8
r0 6
r0.5019607843137255 ?
b10000000 G
b0 H
b1110 C
b11000000 >
b10101001 =
#99
b1011011111111110000000 !
b1011011111111110000000 +
b10000000 4
b11111111 0
b100000000000000000 3
b11111111 2
b1000000000000000000000000 1
b101101 ,
b1100000000000000000000000 -
b0 '
b10000000 &
b111000000 /
b111000000 %
b10000000 )
b0 $
b10000000 *
b10000001000000000000000 "
b10000001000000000000000 #
#102
r128 B
r60 @
r0.2509803921568627 :
r0.2509803921568627 8
r0.2509803921568627 6
b1000000 H
b0 ;
b10000000 >
b11111111 =
b101101 <
#103
b1111000111111110000000 !
b1111000111111110000000 +
b1111111 0
b1111111 2
b100000000000000000000000 1
b111100 ,
b10000000000000000000000000 -
b1000000 (
b1000000 '
b0 %
b1000000 )
b1000000 $
b10000001000000001000000 "
b10000001000000001000000 #
#106
r90 @
r0.5019607843137255 6
b10000000 H
b1111 C
b1 ;
b1111111 =
b111100 <
#107
b10110100111111110000000 !
b10110100111111110000000 +
b1011010 ,
b11000000000000000000000000 -
b1000000 %
b0 )
b10000000 $
b10000001000000010000000 "
b10000001000000010000000 #
#110
r170 B
r105 @
r192 E
r0.5019607843137255 :
r0.7529411764705882 7
r0.7529411764705882 6
b11000000 H
b10000 C
b1011010 <
#111
b11010011010100111000000 !
b11010011010100111000000 +
b11000000 4
b10101001 0
b10101010101010101 3
b10101001 2
b101010101010101010000000 1
b1101001 ,
b11100000000000000000000000 -
b10000000 (
b11000000 &
b10000000 %
b111000000 )
b11000000 $
b10000001000000011000000 "
b10000001000000011000000 #
#114
r255 B
r50 @
r0.7529411764705882 :
r0 8
r0 6
r0.7529411764705882 ?
b11000000 G
b0 H
b10001 C
b11000000 >
b10101001 =
b1101001 <
#115
b1100101111111011000000 !
b1100101111111011000000 +
b11111110 0
b11111110 2
b111111111111111111000000 1
b110010 ,
b1101010101010101011000000 -
b11000000 (
b0 '
b110000000 /
b111000000 %
b11000000 )
b0 $
b11000000 *
b10000001100000000000000 "
b10000001100000000000000 #
#118
r170 B
r60 @
r0.5019607843137255 :
r0.2509803921568627 8
r0.2509803921568627 6
b1000000 H
b10010 C
b11111110 =
b110010 <
#119
b1111001010100111000000 !
b1111001010100111000000 +
b10101001 0
b10101001 2
b101010101010101010000000 1
b111100 ,
b10000000000000000000000000 -
b10000000 (
b1000000 '
b0 %
b10000000 )
b1000000 $
b10000001100000001000000 "
b10000001100000001000000 #
#122
r75 @
r0.5019607843137255 6
b10000000 H
b10011 C
b10101001 =
b111100 <
#123
b10010111010100111000000 !
b10010111010100111000000 +
b1001011 ,
b10100000000000000000000000 -
b1000000 %
b1000000 )
b10000000 $
b10000001100000010000000 "
b10000001100000010000000 #
#126
r90 @
r0.7529411764705882 6
b11000000 H
b10100 C
b1001011 <
#127
b10110101010100111000000 !
b10110101010100111000000 +
b1011010 ,
b11000000000000000000000000 -
b10000000 %
b0 )
b11000000 $
b10000001100000011000000 "
b10000001100000011000000 #
#130
r255 B
r0 @
r128 E
r0.5019607843137255 7
r0 8
r0 6
r0 ?
r0.5019607843137255 A
b10000000 F
b0 G
b0 H
b10101 C
b1011010 <
#131
b1111111110000000 !
b1111111110000000 +
b10000000 4
b11111111 0
b100000000000000000 3
b11111111 2
b1000000000000000000000000 1
b0 ,
b0 -
b0 '
b10000000 &
b10000000 /
b110000000 %
b0 $
b0 *
b10000000 .
b100000000000000000000000 "
b100000000000000000000000 #
#134
r165 @
r0.2509803921568627 6
b1000000 H
b0 ;
b10000000 >
b11111111 =
b0 <
#135
b101001011111111110000000 !
b101001011111111110000000 +
b10100101 ,
b101100000000000000000000000 -
b111000000 %
b111000000 )
b1000000 $
b100000000000000001000000 "
b100000000000000001000000 #
#138
r150 @
r0.5019607843137255 6
b10000000 H
b10100101 <
#139
b100101101111111110000000 !
b100101101111111110000000 +
b10010110 ,
b101000000000000000000000000 -
b0 %
b110000000 )
b10000000 $
b100000000000000010000000 "
b100000000000000010000000 #
#142
r140 @
r192 E
r0.7529411764705882 :
r0.7529411764705882 7
r0.7529411764705882 6
b11000000 H
b10010110 <
#143
b100010111111111011000000 !
b100010111111111011000000 +
b11000000 4
b11111110 0
b10101010101010101 3
b11111110 2
b111111111111111111000000 1
b10001011 ,
b100101010101010101010000000 -
b11000000 (
b11000000 &
b1000000 %
b101000000 )
b11000000 $
b100000000000000011000000 "
b100000000000000011000000 #
#146
r15 @
r128 E
r0.5019607843137255 :
r0.5019607843137255 7
r0 6
r0.2509803921568627 ?
b1000000 G
b0 H
b10111 C
b10 ;
b11000000 >
b11111110 =
b10001011 <
#147
b11111111111110000000 !
b11111111111110000000 +
b10000000 4
b11111111 0
b100000000000000000 3
b11111111 2
b1000000000000000000000000 1
b1111 ,
b100000000000000000000000 -
b10000000 (
b10000000 &
b1000000 /
b110000000 %
b1000000 )
b0 $
b1000000 *
b100000000100000000000000 "
b100000000100000000000000 #
#150
r128 B
r0 @
r0.2509803921568627 :
r0.2509803921568627 8
r0.2509803921568627 6
b1000000 H
b0 ;
b10000000 >
b11111111 =
b1111 <
#151
b111111110000000 !
b111111110000000 +
b1111111 0
b1111111 2
b100000000000000000000000 1
b0 ,
b0 -
b1000000 (
b1000000 '
b111000000 %
b0 )
b1000000 $
b100000000100000001000000 "
b100000000100000001000000 #
#154
r150 @
r0.5019607843137255 6
b10000000 H
b11000 C
b1 ;
b1111111 =
b0 <
#155
b100101100111111110000000 !
b100101100111111110000000 +
b10010110 ,
b101000000000000000000000000 -
b0 %
b111000000 )
b10000000 $
b100000000100000010000000 "
b100000000100000010000000 #
#158
r170 B
r135 @
r192 E
r0.5019607843137255 :
r0.7529411764705882 7
r0.7529411764705882 6
b11000000 H
b11001 C
b10010110 <
#159
b100001111010100111000000 !
b100001111010100111000000 +
b11000000 4
b10101001 0
b10101010101010101 3
b10101001 2
b101010101010101010000000 1
b10000111 ,
b100100000000000000000000000 -
b10000000 (
b11000000 &
b1000000 %
b110000000 )
b11000000 $
b100000000100000011000000 "
b100000000100000011000000 #
#162
r255 B
r30 @
r128 E
r0.5019607843137255 7
r0 8
r0 6
r0.5019607843137255 ?
b10000000 G
b0 H
b11010 C
b11000000 >
b10101001 =
b10000111 <
#163
b111101111111110000000 !
b111101111111110000000 +
b10000000 4
b11111111 0
b100000000000000000 3
b11111111 2
b1000000000000000000000000 1
b11110 ,
b1000000000000000000000000 -
b0 '
b10000000 &
b0 /
b110000000 %
b10000000 )
b0 $
b10000000 *
b100000001000000000000000 "
b100000001000000000000000 #
#166
r128 B
r0.2509803921568627 :
r0.2509803921568627 8
r0.2509803921568627 6
b1000000 H
b0 ;
b10000000 >
b11111111 =
b11110 <
#167
b111100111111110000000 !
b111100111111110000000 +
b1111111 0
b1111111 2
b100000000000000000000000 1
b1000000 (
b1000000 '
b111000000 %
b1000000 )
b1000000 $
b100000001000000001000000 "
b100000001000000001000000 #
#170
r0 B
r0 @
r0 :
r0.5019607843137255 8
r0.5019607843137255 6
b10000000 H
b11011 C
b1 ;
b1111111 =
#171
b10000000 !
b10000000 +
b0 0
b0 2
b0 1
b0 ,
b0 -
b0 (
b10000000 '
b0 %
b0 )
b10000000 $
b100000001000000010000000 "
b100000001000000010000000 #
#174
r85 B
r120 @
r192 E
r0.2509803921568627 :
r0.7529411764705882 7
r0.7529411764705882 6
b11000000 H
b0 ;
b0 =
b0 <
#175
b11110000101010011000000 !
b11110000101010011000000 +
b11000000 4
b1010100 0
b10101010101010101 3
b1010100 2
b10101010101010101000000 1
b1111000 ,
b100000000000000000000000000 -
b1000000 (
b11000000 &
b1000000 %
b111000000 )
b11000000 $
b100000001000000011000000 "
b100000001000000011000000 #
#178
r255 B
r40 @
r0.7529411764705882 :
r0 8
r0 6
r0.7529411764705882 ?
b11000000 G
b0 H
b11100 C
b1 ;
b11000000 >
b1010100 =
b1111000 <
#179
b1010001111111011000000 !
b1010001111111011000000 +
b11111110 0
b11111110 2
b111111111111111111000000 1
b101000 ,
b1010101010101010110000000 -
b11000000 (
b0 '
b111000000 /
b110000000 %
b11000000 )
b0 $
b11000000 *
b100000001100000000000000 "
b100000001100000000000000 #
#182
r170 B
r45 @
r0.5019607843137255 :
r0.2509803921568627 8
r0.2509803921568627 6
b1000000 H
b11101 C
b11111110 =
b101000 <
#183
b1011011010100111000000 !
b1011011010100111000000 +
b10101001 0
b10101001 2
b101010101010101010000000 1
b101101 ,
b1100000000000000000000000 -
b10000000 (
b1000000 '
b111000000 %
b10000000 )
b1000000 $
b100000001100000001000000 "
b100000001100000001000000 #
#186
r85 B
r60 @
r0.2509803921568627 :
r0.5019607843137255 8
r0.5019607843137255 6
b10000000 H
b11110 C
b10101001 =
b101101 <
#187
b1111000101010011000000 !
b1111000101010011000000 +
b1010100 0
b1010100 2
b10101010101010101000000 1
b111100 ,
b10000000000000000000000000 -
b1000000 (
b10000000 '
b0 %
b1000000 )
b10000000 $
b100000001100000010000000 "
b100000001100000010000000 #
#190
r90 @
r0.7529411764705882 6
b11000000 H
b11111 C
b1010100 =
b111100 <
#191
b10110100101010011000000 !
b10110100101010011000000 +
b1011010 ,
b11000000000000000000000000 -
b1000000 %
b0 )
b11000000 $
b100000001100000011000000 "
b100000001100000011000000 #
#194
r255 B
r0 @
r0.7529411764705882 :
r0 8
r0 6
r0 ?
r0.7529411764705882 A
b11000000 F
b0 G
b0 H
b100000 C
b1011010 <
#195
b1111111011000000 !
b1111111011000000 +
b11111110 0
b11111110 2
b111111111111111111000000 1
b0 ,
b0 -
b11000000 (
b0 '
b11000000 /
b101000000 %
b0 $
b0 *
b11000000 .
b110000000000000000000000 "
b110000000000000000000000 #
#198
r170 @
r0.2509803921568627 6
b1000000 H
b100001 C
b11111110 =
b0 <
#199
b101010101111111011000000 !
b101010101111111011000000 +
b10101010 ,
b101101010101010101011000000 -
b110000000 %
b111000000 )
b1000000 $
b110000000000000001000000 "
b110000000000000001000000 #
#202
r160 @
r0.5019607843137255 6
b10000000 H
b100010 C
b10101010 <
#203
b101000001111111011000000 !
b101000001111111011000000 +
b10100000 ,
b101010101010101010110000000 -
b111000000 %
b110000000 )
b10000000 $
b110000000000000010000000 "
b110000000000000010000000 #
#206
r150 @
r0.7529411764705882 6
b11000000 H
b100011 C
b10100000 <
#207
b100101101111111011000000 !
b100101101111111011000000 +
b10010110 ,
b101000000000000000001000000 -
b0 %
b101000000 )
b11000000 $
b110000000000000011000000 "
b110000000000000011000000 #
#210
r10 @
r0 6
r0.2509803921568627 ?
b1000000 G
b0 H
b100100 C
b10010110 <
#211
b10011111111011000000 !
b10011111111011000000 +
b1001 ,
b10101010101010101000000 -
b10000000 /
b101000000 %
b1000000 )
b0 $
b1000000 *
b110000000100000000000000 "
b110000000100000000000000 #
#214
r170 B
r0 @
r0.5019607843137255 :
r0.2509803921568627 8
r0.2509803921568627 6
b1000000 H
b100110 C
b10 ;
b1001 <
#215
b1010100111000000 !
b1010100111000000 +
b10101001 0
b10101001 2
b101010101010101010000000 1
b0 ,
b0 -
b10000000 (
b1000000 '
b110000000 %
b0 )
b1000000 $
b110000000100000001000000 "
b110000000100000001000000 #
#218
r165 @
r0.5019607843137255 6
b10000000 H
b100111 C
b1 ;
b10101001 =
b0 <
#219
b101001011010100111000000 !
b101001011010100111000000 +
b10100101 ,
b101100000000000000000000000 -
b111000000 %
b111000000 )
b10000000 $
b110000000100000010000000 "
b110000000100000010000000 #
#222
r150 @
r0.7529411764705882 6
b11000000 H
b101000 C
b10100101 <
#223
b100101101010100111000000 !
b100101101010100111000000 +
b10010110 ,
b101000000000000000000000000 -
b0 %
b110000000 )
b11000000 $
b110000000100000011000000 "
b110000000100000011000000 #
#226
r255 B
r20 @
r0.7529411764705882 :
r0 8
r0 6
r0.5019607843137255 ?
b10000000 G
b0 H
b101001 C
b10010110 <
#227
b100111111111011000000 !
b100111111111011000000 +
b11111110 0
b11111110 2
b111111111111111111000000 1
b10011 ,
b101010101010101010000000 -
b11000000 (
b0 '
b1000000 /
b101000000 %
b10000000 )
b0 $
b10000000 *
b110000001000000000000000 "
b110000001000000000000000 #
#230
r170 B
r15 @
r0.5019607843137255 :
r0.2509803921568627 8
r0.2509803921568627 6
b1000000 H
b101011 C
b10 ;
b11111110 =
b10011 <
#231
b11111010100111000000 !
b11111010100111000000 +
b10101001 0
b10101001 2
b101010101010101010000000 1
b1111 ,
b100000000000000000000000 -
b10000000 (
b1000000 '
b110000000 %
b1000000 )
b1000000 $
b110000001000000001000000 "
b110000001000000001000000 #
#234
r85 B
r0 @
r0.2509803921568627 :
r0.5019607843137255 8
r0.5019607843137255 6
b10000000 H
b101100 C
b1 ;
b10101001 =
b1111 <
#235
b101010011000000 !
b101010011000000 +
b1010100 0
b1010100 2
b10101010101010101000000 1
b0 ,
b0 -
b1000000 (
b10000000 '
b111000000 %
b0 )
b10000000 $
b110000001000000010000000 "
b110000001000000010000000 #
#238
r150 @
r0.7529411764705882 6
b11000000 H
b101101 C
b1010100 =
b0 <
#239
b100101100101010011000000 !
b100101100101010011000000 +
b10010110 ,
b101000000000000000000000000 -
b0 %
b111000000 )
b11000000 $
b110000001000000011000000 "
b110000001000000011000000 #
#242
r255 B
r30 @
r0.7529411764705882 :
r0 8
r0 6
r0.7529411764705882 ?
b11000000 G
b0 H
b101110 C
b10010110 <
#243
b111011111111011000000 !
b111011111111011000000 +
b11111110 0
b11111110 2
b111111111111111111000000 1
b11101 ,
b111111111111111111000000 -
b11000000 (
b0 '
b0 /
b101000000 %
b11000000 )
b0 $
b11000000 *
b110000001100000000000000 "
b110000001100000000000000 #
#246
r170 B
r0.5019607843137255 :
r0.2509803921568627 8
r0.2509803921568627 6
b1000000 H
b110000 C
b10 ;
b11111110 =
b11101 <
#247
b111101010100111000000 !
b111101010100111000000 +
b10101001 0
b10101001 2
b101010101010101010000000 1
b11110 ,
b1000000000000000000000000 -
b10000000 (
b1000000 '
b110000000 %
b10000000 )
b1000000 $
b110000001100000001000000 "
b110000001100000001000000 #
#250
r85 B
r0.2509803921568627 :
r0.5019607843137255 8
r0.5019607843137255 6
b10000000 H
b110001 C
b1 ;
b10101001 =
b11110 <
#251
b111100101010011000000 !
b111100101010011000000 +
b1010100 0
b1010100 2
b10101010101010101000000 1
b1000000 (
b10000000 '
b111000000 %
b1000000 )
b10000000 $
b110000001100000010000000 "
b110000001100000010000000 #
#254
r0 B
r0 @
r0 :
r0.7529411764705882 8
r0.7529411764705882 6
b11000000 H
b110010 C
b1010100 =
#255
b11000000 !
b11000000 +
b0 0
b0 2
b0 1
b0 ,
b0 -
b0 (
b11000000 '
b0 %
b0 )
b11000000 $
b110000001100000011000000 "
b110000001100000011000000 #
#258
b100000000 F
b100000000 G
b100000000 H
b0 ;
b0 =
b0 <
