DE10_CAM_VISION/ip/LINEAR_BLUR/waves.vcd
$date
	Fri Jun 10 17:27:25 2022
$end
$version
	Icarus Verilog
$end
$timescale
	1s
$end
$scope module LINEAR_BLUR_TB $end
$var wire 1 ! source_valid $end
$var wire 1 " source_sop $end
$var wire 1 # source_eop $end
$var wire 24 $ source_data [23:0] $end
$var wire 1 % sink_ready $end
$var reg 1 & clk $end
$var reg 1 ' reset $end
$var reg 24 ( sink_data [23:0] $end
$var reg 1 ) sink_eop $end
$var reg 1 * sink_sop $end
$var reg 1 + sink_valid $end
$var reg 1 , source_ready $end
$scope module dut $end
$var wire 1 & clk $end
$var wire 1 ' reset_n $end
$var wire 24 - sink_data [23:0] $end
$var wire 1 ) sink_eop $end
$var wire 1 * sink_sop $end
$var wire 1 + sink_valid $end
$var wire 1 , source_ready $end
$var wire 1 . valid_in $end
$var wire 1 ! source_valid $end
$var wire 1 " source_sop $end
$var wire 1 # source_eop $end
$var wire 24 / source_data [23:0] $end
$var wire 1 0 sop_in $end
$var wire 1 % sink_ready $end
$var wire 1 1 ready $end
$var wire 1 2 eop_in $end
$var wire 24 3 data_in [23:0] $end
$var reg 1 4 advance $end
$var reg 1 5 blurselect $end
$var reg 24 6 data_out [23:0] $end
$var reg 4 7 eop [3:0] $end
$var reg 1 8 ready_d $end
$var reg 1 9 selected_blur $end
$var reg 4 : sop [3:0] $end
$var reg 4 ; valid [3:0] $end
$var reg 4 < video_packet [3:0] $end
$var reg 1 = video_packet_debug $end
$scope module in_reg $end
$var wire 1 & clk $end
$var wire 26 > data_in [25:0] $end
$var wire 1 % ready_out $end
$var wire 1 ' rst_n $end
$var wire 1 + valid_in $end
$var wire 1 . valid_out $end
$var wire 1 1 ready_in $end
$var reg 26 ? data_out [25:0] $end
$var reg 1 @ data_valid $end
$var reg 1 A ready_in_d $end
$upscope $end
$scope module out_reg $end
$var wire 1 & clk $end
$var wire 26 B data_in [25:0] $end
$var wire 1 , ready_in $end
$var wire 1 1 ready_out $end
$var wire 1 ' rst_n $end
$var wire 1 C valid_in $end
$var wire 1 ! valid_out $end
$var reg 26 D data_out [25:0] $end
$var reg 1 E data_valid $end
$var reg 1 F ready_in_d $end
$upscope $end
$scope begin $ivl_for_loop0 $end
$var integer 32 G i [31:0] $end
$upscope $end
$scope begin $ivl_for_loop1 $end
$var integer 32 H i [31:0] $end
$upscope $end
$upscope $end
$upscope $end
$enddefinitions $end
#0
$dumpvars
b0 H
b0 G
xF
xE
bx D
xC
bx B
xA
x@
bx ?
bx >
x=
bx <
bx ;
bx :
x9
x8
bx 7
bx 6
x5
x4
bx 3
x2
x1
x0
bx /
x.
bx -
x,
x+
x*
x)
bx (
0'
0&
x%
bx $
x#
x"
x!
$end
#1
1%
11
0.
02
00
b0 3
0!
0#
0"
b0 $
b0 /
bx00 B
0C
14
05
0A
0@
b0 ?
0F
0E
b0 D
b0 7
b0 :
b0 ;
bx0 <
1&
#2
0&
1,
0)
0*
0+
b0 >
b0 (
b0 -
1'
#3
bx00 <
1F
1A
18
b11 H
1&
#4
0&
b10 >
1*
1+
#5
09
0=
1.
10
bx000 <
1@
b10 ?
b11 H
1&
#6
0&
b0 >
0*
#7
00
b0 B
b0 6
b1 :
b1 ;
b0 ?
b1 <
b11 H
b100 G
1&
#8
0&
#9
b11 ;
b11 <
b10 :
b11 H
1&
#10
0&
#11
1C
b10 B
1=
b111 ;
b111 <
b100 :
b11 H
1&
#12
0&
#13
15
19
b0 B
1!
1"
b1111 ;
b1111 <
b1000 :
1E
b10 D
b11 H
1&
#14
0&
b1111111100 >
b11111111 (
b11111111 -
#15
0"
b11111111 3
b0 :
b0 D
b1111111100 ?
b11 H
1&
#16
0&
b0 >
b0 (
b0 -
#17
b0 3
b111111001111110011111100 B
b1111110011111100111111 6
b0 ?
b11 H
1&
#18
0&
#19
b1111110011111100111111 $
b1111110011111100111111 /
b111111001111110011111100 D
b11 H
1&
#20
0&
#21
b11 H
1&
#22
0&
1)
b10000001000000011000001 >
b100000010000000110000 (
b100000010000000110000 -
#23
12
b100000010000000110000 3
b10000001000000011000001 ?
b11 H
1&
#24
0&
0)
b0 >
b0 (
b0 -
#25
02
b0 3
b0 B
b0 6
b0 ?
b1 7
b1110 <
b11 H
1&
#26
0&
#27
b0 $
b0 /
b1100 <
b0 D
b10 7
b11 H
1&
#28
0&
#29
b10000001000000011000001 B
b100000010000000110000 6
05
09
0=
b1000 <
b100 7
b11 H
1&
#30
0&
#31
b0 B
b0 6
1#
b100000010000000110000 $
b100000010000000110000 /
b0 <
b1000 7
b10000001000000011000001 D
b11 H
1&
#32
0&
#33
0#
b0 $
b0 /
b0 7
b0 D
b11 H
1&
#34
0&
1*
b110 >
b1 (
b1 -
#35
10
b1 3
b110 ?
b11 H
1&
#36
0&
0*
b10000001000000011000000 >
b100000010000000110000 (
b100000010000000110000 -
#37
00
b100000010000000110000 3
b1 :
b10000001000000011000000 ?
b11 H
b100 G
1&
#38
0&
b10000001000000011000001 >
1)
#39
12
b10000001000000011000001 ?
b10 :
b11 H
1&
#40
0&
b10000001000000011000000 >
0)
#41
b110 B
b1 6
02
b100 :
b10000001000000011000000 ?
b1 7
b11 H
1&
#42
0&
#43
b10000001000000011000000 B
b100000010000000110000 6
1"
b1 $
b1 /
b1000 :
b110 D
b10 7
b11 H
1&
#44
0&
#45
b10000001000000011000001 B
0"
b100000010000000110000 $
b100000010000000110000 /
b0 :
b100 7
b10000001000000011000000 D
b11 H
1&
#46
0&
#47
b10000001000000011000000 B
1#
b1000 7
b10000001000000011000001 D
b11 H
1&
#48
0&
#49
0#
b0 7
b10000001000000011000000 D
b11 H
1&
#50
0&
#51
b11 H
1&
#52
0&
#53
b11 H
1&
#54
0&
#55
b11 H
1&
#56
0&
#57
b11 H
1&
#58
0&
#59
b11 H
1&
#60
0&
#61
b11 H
1&
#62
0&
#63
b11 H
1&
#64
0&
#65
b11 H
1&
#66
0&
#67
b11 H
1&
#68
0&
#69
b11 H
1&
#70
0&
#71
b11 H
1&
#72
0&
#73
b11 H
1&
#74
0&
#75
b11 H
1&
#76
0&
#77
b11 H
1&
#78
0&
#79
b11 H
1&
#80
0&
#81
b11 H
1&
#82
0&
#83
b11 H
1&
#84
0&
#85
b11 H
1&
#86
0&
#87
b11 H
1&
#88
0&
#89
b11 H
1&
#90
0&
#91
b11 H
1&
#92
0&
#93
b11 H
1&
#94
0&
#95
b11 H
1&
#96
0&
#97
b11 H
1&
#98
0&
#99
b11 H
1&
#100
0&
#101
b11 H
1&
#102
0&
#103
b11 H
1&
#104
0&
#105
b11 H
1&
#106
0&
#107
b11 H
1&
#108
0&
#109
b11 H
1&
#110
0&
#111
b11 H
1&
#112
0&
#113
b11 H
1&
#114
0&
#115
b11 H
1&
#116
0&
#117
b11 H
1&
#118
0&
#119
b11 H
1&
#120
0&
#121
b11 H
1&
#122
0&
#123
b11 H
1&
#124
0&
#125
b11 H
1&
#126
0&
#127
b11 H
1&
#128
0&
#129
b11 H
1&
#130
0&
#131
b11 H
1&
#132
0&
#133
b11 H
1&
#134
0&
#135
b11 H
1&
#136
0&
#137
b11 H
1&
#138
0&
#139
b11 H
1&
#140
0&
#141
b11 H
1&
#142
0&
#143
b11 H
1&
#144
0&
#145
b11 H
1&
#146
0&
#147
b11 H
1&
#148
0&
#149
b11 H
1&
#150
0&
#151
b11 H
1&
#152
0&
#153
b11 H
1&
#154
0&
#155
b11 H
1&
#156
0&
#157
b11 H
1&
#158
0&
#159
b11 H
1&
#160
0&
#161
b11 H
1&
#162
0&
#163
b11 H
1&
#164
0&
#165
b11 H
1&
#166
0&
#167
b11 H
1&
#168
0&
#169
b11 H
1&
#170
0&
#171
b11 H
1&
#172
0&
#173
b11 H
1&
#174
0&
#175
b11 H
1&
#176
0&
#177
b11 H
1&
#178
0&
#179
b11 H
1&
#180
0&
#181
b11 H
1&
#182
0&
#183
b11 H
1&
#184
0&
#185
b11 H
1&
#186
0&
#187
b11 H
1&
#188
0&
#189
b11 H
1&
#190
0&
#191
b11 H
1&
#192
0&
#193
b11 H
1&
#194
0&
#195
b11 H
1&
#196
0&
#197
b11 H
1&
#198
0&
#199
b11 H
1&
#200
0&
#201
b11 H
1&
#202
0&
#203
b11 H
1&
#204
0&
#205
b11 H
1&
#206
0&
#207
b11 H
1&
#208
0&
#209
b11 H
1&
#210
0&
#211
b11 H
1&
#212
0&
#213
b11 H
1&
#214
0&
#215
b11 H
1&
#216
0&
#217
b11 H
1&
#218
0&
#219
b11 H
1&
#220
0&
#221
b11 H
1&
#222
0&
#223
b11 H
1&
#224
0&
#225
b11 H
1&
#226
0&
#227
b11 H
1&
#228
0&
#229
b11 H
1&
#230
0&
#231
b11 H
1&
#232
0&
#233
b11 H
1&
#234
0&
#235
b11 H
1&
#236
0&
#237
b11 H
1&
#238
0&
#239
b11 H
1&
#240
0&
#241
b11 H
1&
#242
0&
#243
b11 H
1&
#244
0&
#245
b11 H
1&
#246
0&
#247
b11 H
1&
#248
0&
#249
b11 H
1&
#250
0&
#251
b11 H
1&
#252
0&
#253
b11 H
1&
#254
0&
#255
b11 H
1&
#256
0&
#257
b11 H
1&
#258
0&
#259
b11 H
1&
#260
0&
#261
b11 H
1&
#262
0&
#263
b11 H
1&
#264
0&
#265
b11 H
1&
#266
0&
#267
b11 H
1&
#268
0&
#269
b11 H
1&
#270
0&
#271
b11 H
1&
#272
0&
#273
b11 H
1&
#274
0&
#275
b11 H
1&
#276
0&
#277
b11 H
1&
#278
0&
#279
b11 H
1&
#280
0&
#281
b11 H
1&
#282
0&
#283
b11 H
1&
#284
0&
#285
b11 H
1&
#286
0&
#287
b11 H
1&
#288
0&
#289
b11 H
1&
#290
0&
#291
b11 H
1&
#292
0&
#293
b11 H
1&
#294
0&
#295
b11 H
1&
#296
0&
#297
b11 H
1&
#298
0&
#299
b11 H
1&
#300
0&
#301
b11 H
1&
#302
0&
#303
b11 H
1&
#304
0&
#305
b11 H
1&
#306
0&
#307
b11 H
1&
#308
0&
#309
b11 H
1&
#310
0&
#311
b11 H
1&
#312
0&
#313
b11 H
1&
#314
0&
#315
b11 H
1&
#316
0&
#317
b11 H
1&
#318
0&
#319
b11 H
1&
#320
0&
#321
b11 H
1&
#322
0&
#323
b11 H
1&
#324
0&
#325
b11 H
1&
#326
0&
#327
b11 H
1&
#328
0&
#329
b11 H
1&
#330
0&
#331
b11 H
1&
#332
0&
#333
b11 H
1&
#334
0&
#335
b11 H
1&
#336
0&
#337
b11 H
1&
#338
0&
#339
b11 H
1&
#340
0&
#341
b11 H
1&
#342
0&
#343
b11 H
1&
#344
0&
#345
b11 H
1&
#346
0&
#347
b11 H
1&
#348
0&
#349
b11 H
1&
#350
0&
#351
b11 H
1&
#352
0&
#353
b11 H
1&
#354
0&
#355
b11 H
1&
#356
0&
#357
b11 H
1&
#358
0&
#359
b11 H
1&
#360
0&
#361
b11 H
1&
#362
0&
#363
b11 H
1&
#364
0&
#365
b11 H
1&
#366
0&
#367
b11 H
1&
#368
0&
#369
b11 H
1&
#370
0&
#371
b11 H
1&
#372
0&
#373
b11 H
1&
#374
0&
#375
b11 H
1&
#376
0&
#377
b11 H
1&
#378
0&
#379
b11 H
1&
#380
0&
#381
b11 H
1&
#382
0&
#383
b11 H
1&
#384
0&
#385
b11 H
1&
#386
0&
#387
b11 H
1&
#388
0&
#389
b11 H
1&
#390
0&
#391
b11 H
1&
#392
0&
#393
b11 H
1&
#394
0&
#395
b11 H
1&
#396
0&
#397
b11 H
1&
#398
0&
#399
b11 H
1&
#400
0&
#401
b11 H
1&
#402
0&
#403
b11 H
1&
#404
0&
#405
b11 H
1&
#406
0&
#407
b11 H
1&
#408
0&
#409
b11 H
1&
#410
0&
#411
b11 H
1&
#412
0&
#413
b11 H
1&
#414
0&
#415
b11 H
1&
#416
0&
#417
b11 H
1&
#418
0&
#419
b11 H
1&
#420
0&
#421
b11 H
1&
#422
0&
#423
b11 H
1&
#424
0&
#425
b11 H
1&
#426
0&
#427
b11 H
1&
#428
0&
#429
b11 H
1&
#430
0&
#431
b11 H
1&
#432
0&
#433
b11 H
1&
#434
0&
#435
b11 H
1&
#436
0&
#437
b11 H
1&
#438
0&
#439
b11 H
1&
#440
0&
#441
b11 H
1&
#442
0&
#443
b11 H
1&
#444
0&
#445
b11 H
1&
#446
0&
#447
b11 H
1&
#448
0&
#449
b11 H
1&
#450
0&
#451
b11 H
1&
#452
0&
#453
b11 H
1&
#454
0&
#455
b11 H
1&
#456
0&
#457
b11 H
1&
#458
0&
#459
b11 H
1&
#460
0&
#461
b11 H
1&
#462
0&
#463
b11 H
1&
#464
0&
#465
b11 H
1&
#466
0&
#467
b11 H
1&
#468
0&
#469
b11 H
1&
#470
0&
#471
b11 H
1&
#472
0&
#473
b11 H
1&
#474
0&
#475
b11 H
1&
#476
0&
#477
b11 H
1&
#478
0&
#479
b11 H
1&
#480
0&
#481
b11 H
1&
#482
0&
#483
b11 H
1&
#484
0&
#485
b11 H
1&
#486
0&
#487
b11 H
1&
#488
0&
#489
b11 H
1&
#490
0&
#491
b11 H
1&
#492
0&
#493
b11 H
1&
#494
0&
#495
b11 H
1&
#496
0&
#497
b11 H
1&
#498
0&
#499
b11 H
1&
#500
0&
#501
b11 H
1&
#502
0&
#503
b11 H
1&
#504
0&
#505
b11 H
1&
#506
0&
#507
b11 H
1&
#508
0&
#509
b11 H
1&
#510
0&
#511
b11 H
1&
#512
0&
#513
b11 H
1&
#514
0&
#515
b11 H
1&
#516
0&
#517
b11 H
1&
#518
0&
#519
b11 H
1&
#520
0&
#521
b11 H
1&
#522
0&
#523
b11 H
1&
#524
0&
#525
b11 H
1&
#526
0&
#527
b11 H
1&
#528
0&
#529
b11 H
1&
#530
0&
#531
b11 H
1&
#532
0&
#533
b11 H
1&
#534
0&
#535
b11 H
1&
#536
0&
#537
b11 H
1&
#538
0&
#539
b11 H
1&
#540
0&
#541
b11 H
1&
#542
0&
#543
b11 H
1&
#544
0&
#545
b11 H
1&
#546
0&
#547
b11 H
1&
#548
0&
#549
b11 H
1&
#550
0&
#551
b11 H
1&
#552
0&
#553
b11 H
1&
#554
0&
#555
b11 H
1&
#556
0&
#557
b11 H
1&
#558
0&
#559
b11 H
1&
#560
0&
#561
b11 H
1&
#562
0&
#563
b11 H
1&
#564
0&
#565
b11 H
1&
#566
0&
#567
b11 H
1&
#568
0&
#569
b11 H
1&
#570
0&
#571
b11 H
1&
#572
0&
#573
b11 H
1&
#574
0&
#575
b11 H
1&
#576
0&
#577
b11 H
1&
#578
0&
#579
b11 H
1&
#580
0&
#581
b11 H
1&
#582
0&
#583
b11 H
1&
#584
0&
#585
b11 H
1&
#586
0&
#587
b11 H
1&
#588
0&
#589
b11 H
1&
#590
0&
#591
b11 H
1&
#592
0&
#593
b11 H
1&
#594
0&
#595
b11 H
1&
#596
0&
#597
b11 H
1&
#598
0&
#599
b11 H
1&
#600
0&
#601
b11 H
1&
#602
0&
#603
b11 H
1&
#604
0&
#605
b11 H
1&
#606
0&
#607
b11 H
1&
#608
0&
#609
b11 H
1&
#610
0&
#611
b11 H
1&
#612
0&
#613
b11 H
1&
#614
0&
#615
b11 H
1&
#616
0&
#617
b11 H
1&
#618
0&
#619
b11 H
1&
#620
0&
#621
b11 H
1&
#622
0&
#623
b11 H
1&
#624
0&
#625
b11 H
1&
#626
0&
#627
b11 H
1&
#628
0&
#629
b11 H
1&
#630
0&
#631
b11 H
1&
#632
0&
#633
b11 H
1&
#634
0&
#635
b11 H
1&
#636
0&
#637
b11 H
1&
#638
0&
#639
b11 H
1&
#640
0&
#641
b11 H
1&
#642
0&
#643
b11 H
1&
#644
0&
#645
b11 H
1&
#646
0&
#647
b11 H
1&
#648
0&
#649
b11 H
1&
#650
0&
#651
b11 H
1&
#652
0&
#653
b11 H
1&
#654
0&
#655
b11 H
1&
#656
0&
#657
b11 H
1&
#658
0&
#659
b11 H
1&
#660
0&
#661
b11 H
1&
#662
0&
#663
b11 H
1&
#664
0&
#665
b11 H
1&
#666
0&
#667
b11 H
1&
#668
0&
#669
b11 H
1&
#670
0&
#671
b11 H
1&
#672
0&
#673
b11 H
1&
#674
0&
#675
b11 H
1&
#676
0&
#677
b11 H
1&
#678
0&
#679
b11 H
1&
#680
0&
#681
b11 H
1&
#682
0&
#683
b11 H
1&
#684
0&
#685
b11 H
1&
#686
0&
#687
b11 H
1&
#688
0&
#689
b11 H
1&
#690
0&
#691
b11 H
1&
#692
0&
#693
b11 H
1&
#694
0&
#695
b11 H
1&
#696
0&
#697
b11 H
1&
#698
0&
#699
b11 H
1&
#700
0&
#701
b11 H
1&
#702
0&
#703
b11 H
1&
#704
0&
#705
b11 H
1&
#706
0&
#707
b11 H
1&
#708
0&
#709
b11 H
1&
#710
0&
#711
b11 H
1&
#712
0&
#713
b11 H
1&
#714
0&
#715
b11 H
1&
#716
0&
#717
b11 H
1&
#718
0&
#719
b11 H
1&
#720
0&
#721
b11 H
1&
#722
0&
#723
b11 H
1&
#724
0&
#725
b11 H
1&
#726
0&
#727
b11 H
1&
#728
0&
#729
b11 H
1&
#730
0&
#731
b11 H
1&
#732
0&
#733
b11 H
1&
#734
0&
#735
b11 H
1&
#736
0&
#737
b11 H
1&
#738
0&
#739
b11 H
1&
#740
0&
#741
b11 H
1&
#742
0&
#743
b11 H
1&
#744
0&
#745
b11 H
1&
#746
0&
#747
b11 H
1&
#748
0&
#749
b11 H
1&
#750
0&
#751
b11 H
1&
#752
0&
#753
b11 H
1&
#754
0&
#755
b11 H
1&
#756
0&
#757
b11 H
1&
#758
0&
#759
b11 H
1&
#760
0&
#761
b11 H
1&
#762
0&
#763
b11 H
1&
#764
0&
#765
b11 H
1&
#766
0&
#767
b11 H
1&
#768
0&
#769
b11 H
1&
#770
0&
#771
b11 H
1&
#772
0&
#773
b11 H
1&
#774
0&
#775
b11 H
1&
#776
0&
#777
b11 H
1&
#778
0&
#779
b11 H
1&
#780
0&
#781
b11 H
1&
#782
0&
#783
b11 H
1&
#784
0&
#785
b11 H
1&
#786
0&
#787
b11 H
1&
#788
0&
#789
b11 H
1&
#790
0&
#791
b11 H
1&
#792
0&
#793
b11 H
1&
#794
0&
#795
b11 H
1&
#796
0&
#797
b11 H
1&
#798
0&
#799
b11 H
1&
#800
0&
#801
b11 H
1&
#802
0&
#803
b11 H
1&
#804
0&
#805
b11 H
1&
#806
0&
#807
b11 H
1&
#808
0&
#809
b11 H
1&
#810
0&
#811
b11 H
1&
#812
0&
#813
b11 H
1&
#814
0&
#815
b11 H
1&
#816
0&
#817
b11 H
1&
#818
0&
#819
b11 H
1&
#820
0&
#821
b11 H
1&
#822
0&
#823
b11 H
1&
#824
0&
#825
b11 H
1&
#826
0&
#827
b11 H
1&
#828
0&
#829
b11 H
1&
#830
0&
#831
b11 H
1&
#832
0&
#833
b11 H
1&
#834
0&
#835
b11 H
1&
#836
0&
#837
b11 H
1&
#838
0&
#839
b11 H
1&
#840
0&
#841
b11 H
1&
#842
0&
#843
b11 H
1&
#844
0&
#845
b11 H
1&
#846
0&
#847
b11 H
1&
#848
0&
#849
b11 H
1&
#850
0&
#851
b11 H
1&
#852
0&
#853
b11 H
1&
#854
0&
#855
b11 H
1&
#856
0&
#857
b11 H
1&
#858
0&
#859
b11 H
1&
#860
0&
#861
b11 H
1&
#862
0&
#863
b11 H
1&
#864
0&
#865
b11 H
1&
#866
0&
#867
b11 H
1&
#868
0&
#869
b11 H
1&
#870
0&
#871
b11 H
1&
#872
0&
#873
b11 H
1&
#874
0&
#875
b11 H
1&
#876
0&
#877
b11 H
1&
#878
0&
#879
b11 H
1&
#880
0&
#881
b11 H
1&
#882
0&
#883
b11 H
1&
#884
0&
#885
b11 H
1&
#886
0&
#887
b11 H
1&
#888
0&
#889
b11 H
1&
#890
0&
#891
b11 H
1&
#892
0&
#893
b11 H
1&
#894
0&
#895
b11 H
1&
#896
0&
#897
b11 H
1&
#898
0&
#899
b11 H
1&
#900
0&
#901
b11 H
1&
#902
0&
#903
b11 H
1&
#904
0&
#905
b11 H
1&
#906
0&
#907
b11 H
1&
#908
0&
#909
b11 H
1&
#910
0&
#911
b11 H
1&
#912
0&
#913
b11 H
1&
#914
0&
#915
b11 H
1&
#916
0&
#917
b11 H
1&
#918
0&
#919
b11 H
1&
#920
0&
#921
b11 H
1&
#922
0&
#923
b11 H
1&
#924
0&
#925
b11 H
1&
#926
0&
#927
b11 H
1&
#928
0&
#929
b11 H
1&
#930
0&
#931
b11 H
1&
#932
0&
#933
b11 H
1&
#934
0&
#935
b11 H
1&
#936
0&
#937
b11 H
1&
#938
0&
#939
b11 H
1&
#940
0&
#941
b11 H
1&
#942
0&
#943
b11 H
1&
#944
0&
#945
b11 H
1&
#946
0&
#947
b11 H
1&
#948
0&
#949
b11 H
1&
#950
0&
#951
b11 H
1&
#952
0&
#953
b11 H
1&
#954
0&
#955
b11 H
1&
#956
0&
#957
b11 H
1&
#958
0&
#959
b11 H
1&
#960
0&
#961
b11 H
1&
#962
0&
#963
b11 H
1&
#964
0&
#965
b11 H
1&
#966
0&
#967
b11 H
1&
#968
0&
#969
b11 H
1&
#970
0&
#971
b11 H
1&
#972
0&
#973
b11 H
1&
#974
0&
#975
b11 H
1&
#976
0&
#977
b11 H
1&
#978
0&
#979
b11 H
1&
#980
0&
#981
b11 H
1&
#982
0&
#983
b11 H
1&
#984
0&
#985
b11 H
1&
#986
0&
#987
b11 H
1&
#988
0&
#989
b11 H
1&
#990
0&
#991
b11 H
1&
#992
0&
#993
b11 H
1&
#994
0&
#995
b11 H
1&
#996
0&
#997
b11 H
1&
#998
0&
#999
b11 H
1&
