DE10_CAM_MEMORY/ip/EOP_INTERRUPT/waves.vcd
$date
	Wed Jun 08 19:16:25 2022
$end
$version
	Icarus Verilog
$end
$timescale
	1s
$end
$scope module EOP_INTERRUPT_TB $end
$var wire 1 ! sink_ready $end
$var wire 1 " irq $end
$var reg 1 # clk $end
$var reg 1 $ reset $end
$var reg 24 % sink_data [23:0] $end
$var reg 1 & sink_eop $end
$var reg 1 ' sink_sop $end
$var reg 1 ( sink_valid $end
$var reg 1 ) source_ready $end
$scope module dut $end
$var wire 1 # clk $end
$var wire 1 $ reset_n $end
$var wire 24 * sink_data [23:0] $end
$var wire 1 & sink_eop $end
$var wire 1 ' sink_sop $end
$var wire 1 ( sink_valid $end
$var wire 1 + valid $end
$var wire 1 , sop $end
$var wire 1 ! sink_ready $end
$var wire 1 - eop $end
$var wire 24 . data [23:0] $end
$var reg 1 " irq $end
$var reg 1 / video_packet $end
$scope module in_reg $end
$var wire 1 # clk $end
$var wire 26 0 data_in [25:0] $end
$var wire 1 1 ready_in $end
$var wire 1 ! ready_out $end
$var wire 1 $ rst_n $end
$var wire 1 ( valid_in $end
$var wire 1 + valid_out $end
$var reg 26 2 data_out [25:0] $end
$var reg 1 3 data_valid $end
$var reg 1 4 ready_in_d $end
$upscope $end
$upscope $end
$upscope $end
$enddefinitions $end
#0
$dumpvars
x4
x3
bx 2
11
bx 0
x/
bx .
x-
x,
x+
bx *
x)
x(
x'
x&
bx %
0$
0#
x"
1!
$end
#1
0+
0-
0,
b0 .
0"
04
03
b0 2
0/
1#
#2
0#
1)
0&
0'
0(
b0 0
b0 %
b0 *
1$
#3
14
1#
#4
0#
b10 0
1'
1(
#5
1+
1,
13
b10 2
1#
#6
0#
0'
b1000000100000001100 0
b10000001000000011 %
b10000001000000011 *
#7
0,
b10000001000000011 .
1/
b1000000100000001100 2
1#
#8
0#
1&
b10000001000000011000001 0
b100000010000000110000 %
b100000010000000110000 *
#9
1"
1-
b100000010000000110000 .
b10000001000000011000001 2
1#
#10
0#
0)
0&
0(
b0 0
b0 %
b0 *
#11
0"
0+
0/
03
1#
#12
0#
#13
1#
#14
0#
#15
1#
#16
0#
1)
1'
1(
b110 0
b1 %
b1 *
#17
1+
0-
1,
b1 .
13
b110 2
1#
#18
0#
0'
b10000001000000011000000 0
b100000010000000110000 %
b100000010000000110000 *
#19
0,
b100000010000000110000 .
b10000001000000011000000 2
1#
#20
0#
b10000001000000011000001 0
1&
#21
1-
b10000001000000011000001 2
1#
#22
0#
b10000001000000011000000 0
0&
#23
0-
b10000001000000011000000 2
1#
