DE10_CAM_VISION/ip/COM_COUNTER/waves.vcd
$date
	Fri Jun 10 11:52:19 2022
$end
$version
	Icarus Verilog
$end
$timescale
	1s
$end
$scope module COM_COUNTER_TB $end
$var wire 1 ! source_valid $end
$var wire 1 " source_sop $end
$var wire 1 # source_eop $end
$var wire 24 $ source_data [23:0] $end
$var wire 1 % sink_ready $end
$var reg 1 & clk $end
$var reg 1 ' reset $end
$var reg 24 ( sink_data [23:0] $end
$var reg 1 ) sink_eop $end
$var reg 1 * sink_sop $end
$var reg 1 + sink_valid $end
$var reg 1 , source_ready $end
$scope module dut $end
$var wire 1 & clk $end
$var wire 1 ' reset_n $end
$var wire 4 - s_address [3:0] $end
$var wire 1 . s_chipselect $end
$var wire 1 / s_read $end
$var wire 1 0 s_write $end
$var wire 32 1 s_writedata [31:0] $end
$var wire 24 2 sink_data [23:0] $end
$var wire 1 ) sink_eop $end
$var wire 1 * sink_sop $end
$var wire 1 + sink_valid $end
$var wire 1 , source_ready $end
$var wire 1 ! source_valid $end
$var wire 1 " source_sop $end
$var wire 1 # source_eop $end
$var wire 24 3 source_data [23:0] $end
$var wire 1 4 sop $end
$var wire 1 % sink_ready $end
$var wire 8 5 red [7:0] $end
$var wire 1 6 out_ready $end
$var wire 32 7 mass [31:0] $end
$var wire 1 8 in_valid $end
$var wire 8 9 green [7:0] $end
$var wire 32 : ey_raw [31:0] $end
$var wire 32 ; ex_raw [31:0] $end
$var wire 1 < eop $end
$var wire 8 = blue [7:0] $end
$var reg 8 > blue_out [7:0] $end
$var reg 11 ? bottom [10:0] $end
$var reg 8 @ green_out [7:0] $end
$var reg 11 A left [10:0] $end
$var reg 8 B mask [7:0] $end
$var reg 1 C packet_video $end
$var reg 8 D red_out [7:0] $end
$var reg 11 E right [10:0] $end
$var reg 32 F s_readdata [31:0] $end
$var reg 24 G threshold_gate [23:0] $end
$var reg 11 H top [10:0] $end
$var reg 11 I x [10:0] $end
$var reg 11 J x_max [10:0] $end
$var reg 11 K x_min [10:0] $end
$var reg 11 L y [10:0] $end
$var reg 11 M y_max [10:0] $end
$var reg 11 N y_min [10:0] $end
$scope module com_counter $end
$var wire 1 & clk $end
$var wire 8 O mask [7:0] $end
$var wire 1 C packet_video $end
$var wire 1 ' reset_n $end
$var wire 1 < sink_eop $end
$var wire 1 4 sink_sop $end
$var wire 1 8 sink_valid $end
$var reg 32 P current_ex_raw [31:0] $end
$var reg 32 Q current_ey_raw [31:0] $end
$var reg 32 R current_mass [31:0] $end
$var reg 32 S ex_raw [31:0] $end
$var reg 32 T ey_raw [31:0] $end
$var reg 32 U mass [31:0] $end
$var reg 32 V pixels_counter [31:0] $end
$var reg 32 W pixels_counter_frame [31:0] $end
$var reg 11 X x_pixel [10:0] $end
$var reg 11 Y y_pixel [10:0] $end
$upscope $end
$scope module in_reg $end
$var wire 1 & clk $end
$var wire 26 Z data_in [25:0] $end
$var wire 1 % ready_out $end
$var wire 1 ' rst_n $end
$var wire 1 + valid_in $end
$var wire 1 8 valid_out $end
$var wire 1 6 ready_in $end
$var reg 26 [ data_out [25:0] $end
$var reg 1 \ data_valid $end
$var reg 1 ] ready_in_d $end
$upscope $end
$scope module out_reg $end
$var wire 1 & clk $end
$var wire 26 ^ data_in [25:0] $end
$var wire 1 , ready_in $end
$var wire 1 6 ready_out $end
$var wire 1 ' rst_n $end
$var wire 1 8 valid_in $end
$var wire 1 ! valid_out $end
$var reg 26 _ data_out [25:0] $end
$var reg 1 ` data_valid $end
$var reg 1 a ready_in_d $end
$upscope $end
$upscope $end
$upscope $end
$enddefinitions $end
#0
$dumpvars
xa
x`
bx _
bx ^
x]
x\
bx [
bx Z
bx Y
bx X
bx W
bx V
bx U
bx T
bx S
bx R
bx Q
bx P
bx O
bx N
bx M
bx L
bx K
bx J
bx I
bx H
bx G
bx F
bx E
bx D
xC
bx B
bx A
bx @
bx ?
bx >
bx =
x<
bx ;
bx :
bx 9
x8
bx 7
x6
bx 5
x4
bx 3
bx 2
bz 1
z0
z/
z.
bz -
x,
x+
x*
x)
bx (
0'
0&
x%
bx $
x#
x"
x!
$end
#1
1%
16
b0 B
b0 O
b0 D
b0 @
b0 >
08
0<
b0 ^
04
b0 =
b0 9
b0 5
0!
0#
0"
b0 $
b0 3
0]
0\
b0 [
0a
0`
b0 _
b0 W
b0 V
b0 R
b0 Q
b0 P
b0 :
b0 T
b0 ;
b0 S
b0 7
b0 U
b0 Y
b0 X
b1111111 G
0C
b0 F
1&
#2
0&
1,
0)
0*
0+
b0 Z
b0 (
b0 2
1'
#3
1a
1]
1&
#4
0&
b10 Z
1*
1+
#5
18
b10 ^
14
1\
b10 [
1&
#6
0&
b0 Z
0*
#7
1!
1"
b0 ^
04
b0 M
b111011111 N
b0 J
b1001111111 K
1C
b0 L
b0 I
1`
b10 _
b0 [
1&
#8
0&
b1111111100 Z
b11111111 (
b11111111 2
#9
b11111111 B
b11111111 O
b11111111 D
b11111111 @
b11111111111111111111111100 ^
b11111111 >
b11111111 =
0"
b1111111100 [
b0 _
b1 X
b1 V
b1 I
1&
#10
0&
b1010000000 Z
b10100000 (
b10100000 2
#11
b111111111111111111111111 $
b111111111111111111111111 3
b10100000 =
b0 N
b1 J
b1 K
b10 I
b10 X
b1 R
b1 P
b10 V
b11111111111111111111111100 _
b1010000000 [
1&
#12
0&
b10000000000000000000000 Z
b100000000000000000000 (
b100000000000000000000 2
#13
b0 B
b0 O
b0 D
b0 @
b0 ^
b0 >
b0 =
b10000 5
b10000000000000000000000 [
b11 X
b10 R
b11 P
b11 V
b11 I
b10 J
1&
#14
0&
b1111111100 Z
b11111111 (
b11111111 2
#15
b11111111 B
b11111111 O
b11111111 D
b11111111 @
b11111111111111111111111100 ^
b11111111 >
b0 $
b0 3
b11111111 =
b0 5
b100 I
b100 X
b100 V
b0 _
b1111111100 [
1&
#16
0&
b0 Z
b0 (
b0 2
#17
b0 B
b0 O
b0 D
b0 @
b0 ^
b0 >
b0 =
b111111111111111111111111 $
b111111111111111111111111 3
b0 [
b11111111111111111111111100 _
b101 X
b11 R
b111 P
b101 V
b101 I
b100 J
1&
#18
0&
#19
b0 $
b0 3
b110 I
b110 X
b110 V
b0 _
1&
#20
0&
#21
b111 X
b111 V
b111 I
1&
#22
0&
1)
b10000001000000011000001 Z
b100000010000000110000 (
b100000010000000110000 2
#23
b1 ^
1<
b110000 =
b100000 9
b10000 5
b1000 I
b1000 X
b1000 V
b10000001000000011000001 [
1&
#24
0&
0)
0+
b0 Z
b0 (
b0 2
#25
08
1#
0\
b1 _
b1000 W
b111 ;
b111 S
b11 7
b11 U
b1001 X
b1001 V
b1001 I
b0 ?
b0 H
b100 E
b1 A
1&
#26
0&
#27
0!
b1001 W
0`
1&
#28
0&
#29
1&
#30
0&
#31
1&
#32
0&
1*
1+
b110 Z
b1 (
b1 2
#33
b1 B
b1 O
b1 >
18
0<
b110 ^
14
b1 =
b0 9
b0 5
1\
b110 [
1&
#34
0&
0*
b10000001000001111111100 Z
b100000010000011111111 (
b100000010000011111111 2
#35
b11111111 B
b11111111 O
b10000 D
b100000 @
b11111111 >
1!
0#
1"
b1 $
b1 3
b10000001000001111111100 ^
04
b11111111 =
b100000 9
b10000 5
b111011111 N
b1001111111 K
b0 J
0C
b0 I
b0 V
b0 R
b0 P
b0 X
1`
b110 _
b10000001000001111111100 [
1&
#36
0&
1)
b10000001000000011000001 Z
b100000010000000110000 (
b100000010000000110000 2
#37
b110000 B
b110000 O
b110000 >
b10000001000000011000001 ^
1<
b110000 =
0"
b100000010000011111111 $
b100000010000011111111 3
b10000001000000011000001 [
b10000001000001111111100 _
b1 I
b0 N
b0 K
1&
#38
0&
b10000001000000011000000 Z
0)
#39
1#
b100000010000000110000 $
b100000010000000110000 3
b10000001000000011000000 ^
0<
b10 I
b10000001000000011000001 _
b10000001000000011000000 [
1&
#40
0&
#41
0#
b10000001000000011000000 _
b11 I
1&
#42
0&
#43
b100 I
1&
#44
0&
#45
b101 I
1&
#46
0&
#47
b110 I
1&
#48
0&
#49
b111 I
1&
#50
0&
#51
b1000 I
1&
#52
0&
#53
b1001 I
1&
#54
0&
#55
b1010 I
1&
#56
0&
#57
b1011 I
1&
#58
0&
#59
b1100 I
1&
#60
0&
#61
b1101 I
1&
#62
0&
#63
b1110 I
1&
#64
0&
#65
b1111 I
1&
#66
0&
#67
b10000 I
1&
#68
0&
#69
b10001 I
1&
#70
0&
#71
b10010 I
1&
#72
0&
#73
b10011 I
1&
#74
0&
#75
b10100 I
1&
#76
0&
#77
b10101 I
1&
#78
0&
#79
b10110 I
1&
#80
0&
#81
b10111 I
1&
#82
0&
#83
b11000 I
1&
#84
0&
#85
b11001 I
1&
#86
0&
#87
b11010 I
1&
#88
0&
#89
b11011 I
1&
#90
0&
#91
b11100 I
1&
#92
0&
#93
b11101 I
1&
#94
0&
#95
b11110 I
1&
#96
0&
#97
b11111 I
1&
#98
0&
#99
b100000 I
1&
#100
0&
#101
b100001 I
1&
#102
0&
#103
b100010 I
1&
#104
0&
#105
b100011 I
1&
#106
0&
#107
b100100 I
1&
#108
0&
#109
b100101 I
1&
#110
0&
#111
b100110 I
1&
#112
0&
#113
b100111 I
1&
#114
0&
#115
b101000 I
1&
#116
0&
#117
b101001 I
1&
#118
0&
#119
b101010 I
1&
#120
0&
#121
b101011 I
1&
#122
0&
#123
b101100 I
1&
#124
0&
#125
b101101 I
1&
#126
0&
#127
b101110 I
1&
#128
0&
#129
b101111 I
1&
#130
0&
#131
b110000 I
1&
#132
0&
#133
b110001 I
1&
#134
0&
#135
b110010 I
1&
#136
0&
#137
b110011 I
1&
#138
0&
#139
b110100 I
1&
#140
0&
#141
b110101 I
1&
#142
0&
#143
b110110 I
1&
#144
0&
#145
b110111 I
1&
#146
0&
#147
b111000 I
1&
#148
0&
#149
b111001 I
1&
#150
0&
#151
b111010 I
1&
#152
0&
#153
b111011 I
1&
#154
0&
#155
b111100 I
1&
#156
0&
#157
b111101 I
1&
#158
0&
#159
b111110 I
1&
#160
0&
#161
b111111 I
1&
#162
0&
#163
b1000000 I
1&
#164
0&
#165
b1000001 I
1&
#166
0&
#167
b1000010 I
1&
#168
0&
#169
b1000011 I
1&
#170
0&
#171
b1000100 I
1&
#172
0&
#173
b1000101 I
1&
#174
0&
#175
b1000110 I
1&
#176
0&
#177
b1000111 I
1&
#178
0&
#179
b1001000 I
1&
#180
0&
#181
b1001001 I
1&
#182
0&
#183
b1001010 I
1&
#184
0&
#185
b1001011 I
1&
#186
0&
#187
b1001100 I
1&
#188
0&
#189
b1001101 I
1&
#190
0&
#191
b1001110 I
1&
#192
0&
#193
b1001111 I
1&
#194
0&
#195
b1010000 I
1&
#196
0&
#197
b1010001 I
1&
#198
0&
#199
b1010010 I
1&
#200
0&
#201
b1010011 I
1&
#202
0&
#203
b1010100 I
1&
#204
0&
#205
b1010101 I
1&
#206
0&
#207
b1010110 I
1&
#208
0&
#209
b1010111 I
1&
#210
0&
#211
b1011000 I
1&
#212
0&
#213
b1011001 I
1&
#214
0&
#215
b1011010 I
1&
#216
0&
#217
b1011011 I
1&
#218
0&
#219
b1011100 I
1&
#220
0&
#221
b1011101 I
1&
#222
0&
#223
b1011110 I
1&
#224
0&
#225
b1011111 I
1&
#226
0&
#227
b1100000 I
1&
#228
0&
#229
b1100001 I
1&
#230
0&
#231
b1100010 I
1&
#232
0&
#233
b1100011 I
1&
#234
0&
#235
b1100100 I
1&
#236
0&
#237
b1100101 I
1&
#238
0&
#239
b1100110 I
1&
#240
0&
#241
b1100111 I
1&
#242
0&
#243
b1101000 I
1&
#244
0&
#245
b1101001 I
1&
#246
0&
#247
b1101010 I
1&
#248
0&
#249
b1101011 I
1&
#250
0&
#251
b1101100 I
1&
#252
0&
#253
b1101101 I
1&
#254
0&
#255
b1101110 I
1&
#256
0&
#257
b1101111 I
1&
#258
0&
#259
b1110000 I
1&
#260
0&
#261
b1110001 I
1&
#262
0&
#263
b1110010 I
1&
#264
0&
#265
b1110011 I
1&
#266
0&
#267
b1110100 I
1&
#268
0&
#269
b1110101 I
1&
#270
0&
#271
b1110110 I
1&
#272
0&
#273
b1110111 I
1&
#274
0&
#275
b1111000 I
1&
#276
0&
#277
b1111001 I
1&
#278
0&
#279
b1111010 I
1&
#280
0&
#281
b1111011 I
1&
#282
0&
#283
b1111100 I
1&
#284
0&
#285
b1111101 I
1&
#286
0&
#287
b1111110 I
1&
#288
0&
#289
b1111111 I
1&
#290
0&
#291
b10000000 I
1&
#292
0&
#293
b10000001 I
1&
#294
0&
#295
b10000010 I
1&
#296
0&
#297
b10000011 I
1&
#298
0&
#299
b10000100 I
1&
#300
0&
#301
b10000101 I
1&
#302
0&
#303
b10000110 I
1&
#304
0&
#305
b10000111 I
1&
#306
0&
#307
b10001000 I
1&
#308
0&
#309
b10001001 I
1&
#310
0&
#311
b10001010 I
1&
#312
0&
#313
b10001011 I
1&
#314
0&
#315
b10001100 I
1&
#316
0&
#317
b10001101 I
1&
#318
0&
#319
b10001110 I
1&
#320
0&
#321
b10001111 I
1&
#322
0&
#323
b10010000 I
1&
#324
0&
#325
b10010001 I
1&
#326
0&
#327
b10010010 I
1&
#328
0&
#329
b10010011 I
1&
#330
0&
#331
b10010100 I
1&
#332
0&
#333
b10010101 I
1&
#334
0&
#335
b10010110 I
1&
#336
0&
#337
b10010111 I
1&
#338
0&
#339
b10011000 I
1&
#340
0&
#341
b10011001 I
1&
#342
0&
#343
b10011010 I
1&
#344
0&
#345
b10011011 I
1&
#346
0&
#347
b10011100 I
1&
#348
0&
#349
b10011101 I
1&
#350
0&
#351
b10011110 I
1&
#352
0&
#353
b10011111 I
1&
#354
0&
#355
b10100000 I
1&
#356
0&
#357
b10100001 I
1&
#358
0&
#359
b10100010 I
1&
#360
0&
#361
b10100011 I
1&
#362
0&
#363
b10100100 I
1&
#364
0&
#365
b10100101 I
1&
#366
0&
#367
b10100110 I
1&
#368
0&
#369
b10100111 I
1&
#370
0&
#371
b10101000 I
1&
#372
0&
#373
b10101001 I
1&
#374
0&
#375
b10101010 I
1&
#376
0&
#377
b10101011 I
1&
#378
0&
#379
b10101100 I
1&
#380
0&
#381
b10101101 I
1&
#382
0&
#383
b10101110 I
1&
#384
0&
#385
b10101111 I
1&
#386
0&
#387
b10110000 I
1&
#388
0&
#389
b10110001 I
1&
#390
0&
#391
b10110010 I
1&
#392
0&
#393
b10110011 I
1&
#394
0&
#395
b10110100 I
1&
#396
0&
#397
b10110101 I
1&
#398
0&
#399
b10110110 I
1&
#400
0&
#401
b10110111 I
1&
#402
0&
#403
b10111000 I
1&
#404
0&
#405
b10111001 I
1&
#406
0&
#407
b10111010 I
1&
#408
0&
#409
b10111011 I
1&
#410
0&
#411
b10111100 I
1&
#412
0&
#413
b10111101 I
1&
#414
0&
#415
b10111110 I
1&
#416
0&
#417
b10111111 I
1&
#418
0&
#419
b11000000 I
1&
#420
0&
#421
b11000001 I
1&
#422
0&
#423
b11000010 I
1&
#424
0&
#425
b11000011 I
1&
#426
0&
#427
b11000100 I
1&
#428
0&
#429
b11000101 I
1&
#430
0&
#431
b11000110 I
1&
#432
0&
#433
b11000111 I
1&
#434
0&
#435
b11001000 I
1&
#436
0&
#437
b11001001 I
1&
#438
0&
#439
b11001010 I
1&
#440
0&
#441
b11001011 I
1&
#442
0&
#443
b11001100 I
1&
#444
0&
#445
b11001101 I
1&
#446
0&
#447
b11001110 I
1&
#448
0&
#449
b11001111 I
1&
#450
0&
#451
b11010000 I
1&
#452
0&
#453
b11010001 I
1&
#454
0&
#455
b11010010 I
1&
#456
0&
#457
b11010011 I
1&
#458
0&
#459
b11010100 I
1&
#460
0&
#461
b11010101 I
1&
#462
0&
#463
b11010110 I
1&
#464
0&
#465
b11010111 I
1&
#466
0&
#467
b11011000 I
1&
#468
0&
#469
b11011001 I
1&
#470
0&
#471
b11011010 I
1&
#472
0&
#473
b11011011 I
1&
#474
0&
#475
b11011100 I
1&
#476
0&
#477
b11011101 I
1&
#478
0&
#479
b11011110 I
1&
#480
0&
#481
b11011111 I
1&
#482
0&
#483
b11100000 I
1&
#484
0&
#485
b11100001 I
1&
#486
0&
#487
b11100010 I
1&
#488
0&
#489
b11100011 I
1&
#490
0&
#491
b11100100 I
1&
#492
0&
#493
b11100101 I
1&
#494
0&
#495
b11100110 I
1&
#496
0&
#497
b11100111 I
1&
#498
0&
#499
b11101000 I
1&
#500
0&
#501
b11101001 I
1&
#502
0&
#503
b11101010 I
1&
#504
0&
#505
b11101011 I
1&
#506
0&
#507
b11101100 I
1&
#508
0&
#509
b11101101 I
1&
#510
0&
#511
b11101110 I
1&
#512
0&
#513
b11101111 I
1&
#514
0&
#515
b11110000 I
1&
#516
0&
#517
b11110001 I
1&
#518
0&
#519
b11110010 I
1&
#520
0&
#521
b11110011 I
1&
#522
0&
#523
b11110100 I
1&
#524
0&
#525
b11110101 I
1&
#526
0&
#527
b11110110 I
1&
#528
0&
#529
b11110111 I
1&
#530
0&
#531
b11111000 I
1&
#532
0&
#533
b11111001 I
1&
#534
0&
#535
b11111010 I
1&
#536
0&
#537
b11111011 I
1&
#538
0&
#539
b11111100 I
1&
#540
0&
#541
b11111101 I
1&
#542
0&
#543
b11111110 I
1&
#544
0&
#545
b11111111 I
1&
#546
0&
#547
b100000000 I
1&
#548
0&
#549
b100000001 I
1&
#550
0&
#551
b100000010 I
1&
#552
0&
#553
b100000011 I
1&
#554
0&
#555
b100000100 I
1&
#556
0&
#557
b100000101 I
1&
#558
0&
#559
b100000110 I
1&
#560
0&
#561
b100000111 I
1&
#562
0&
#563
b100001000 I
1&
#564
0&
#565
b100001001 I
1&
#566
0&
#567
b100001010 I
1&
#568
0&
#569
b100001011 I
1&
#570
0&
#571
b100001100 I
1&
#572
0&
#573
b100001101 I
1&
#574
0&
#575
b100001110 I
1&
#576
0&
#577
b100001111 I
1&
#578
0&
#579
b100010000 I
1&
#580
0&
#581
b100010001 I
1&
#582
0&
#583
b100010010 I
1&
#584
0&
#585
b100010011 I
1&
#586
0&
#587
b100010100 I
1&
#588
0&
#589
b100010101 I
1&
#590
0&
#591
b100010110 I
1&
#592
0&
#593
b100010111 I
1&
#594
0&
#595
b100011000 I
1&
#596
0&
#597
b100011001 I
1&
#598
0&
#599
b100011010 I
1&
#600
0&
#601
b100011011 I
1&
#602
0&
#603
b100011100 I
1&
#604
0&
#605
b100011101 I
1&
#606
0&
#607
b100011110 I
1&
#608
0&
#609
b100011111 I
1&
#610
0&
#611
b100100000 I
1&
#612
0&
#613
b100100001 I
1&
#614
0&
#615
b100100010 I
1&
#616
0&
#617
b100100011 I
1&
#618
0&
#619
b100100100 I
1&
#620
0&
#621
b100100101 I
1&
#622
0&
#623
b100100110 I
1&
#624
0&
#625
b100100111 I
1&
#626
0&
#627
b100101000 I
1&
#628
0&
#629
b100101001 I
1&
#630
0&
#631
b100101010 I
1&
#632
0&
#633
b100101011 I
1&
#634
0&
#635
b100101100 I
1&
#636
0&
#637
b100101101 I
1&
#638
0&
#639
b100101110 I
1&
#640
0&
#641
b100101111 I
1&
#642
0&
#643
b100110000 I
1&
#644
0&
#645
b100110001 I
1&
#646
0&
#647
b100110010 I
1&
#648
0&
#649
b100110011 I
1&
#650
0&
#651
b100110100 I
1&
#652
0&
#653
b100110101 I
1&
#654
0&
#655
b100110110 I
1&
#656
0&
#657
b100110111 I
1&
#658
0&
#659
b100111000 I
1&
#660
0&
#661
b100111001 I
1&
#662
0&
#663
b100111010 I
1&
#664
0&
#665
b100111011 I
1&
#666
0&
#667
b100111100 I
1&
#668
0&
#669
b100111101 I
1&
#670
0&
#671
b100111110 I
1&
#672
0&
#673
b100111111 I
1&
#674
0&
#675
b101000000 I
1&
#676
0&
#677
b101000001 I
1&
#678
0&
#679
b101000010 I
1&
#680
0&
#681
b101000011 I
1&
#682
0&
#683
b101000100 I
1&
#684
0&
#685
b101000101 I
1&
#686
0&
#687
b101000110 I
1&
#688
0&
#689
b101000111 I
1&
#690
0&
#691
b101001000 I
1&
#692
0&
#693
b101001001 I
1&
#694
0&
#695
b101001010 I
1&
#696
0&
#697
b101001011 I
1&
#698
0&
#699
b101001100 I
1&
#700
0&
#701
b101001101 I
1&
#702
0&
#703
b101001110 I
1&
#704
0&
#705
b101001111 I
1&
#706
0&
#707
b101010000 I
1&
#708
0&
#709
b101010001 I
1&
#710
0&
#711
b101010010 I
1&
#712
0&
#713
b101010011 I
1&
#714
0&
#715
b101010100 I
1&
#716
0&
#717
b101010101 I
1&
#718
0&
#719
b101010110 I
1&
#720
0&
#721
b101010111 I
1&
#722
0&
#723
b101011000 I
1&
#724
0&
#725
b101011001 I
1&
#726
0&
#727
b101011010 I
1&
#728
0&
#729
b101011011 I
1&
#730
0&
#731
b101011100 I
1&
#732
0&
#733
b101011101 I
1&
#734
0&
#735
b101011110 I
1&
#736
0&
#737
b101011111 I
1&
#738
0&
#739
b101100000 I
1&
#740
0&
#741
b101100001 I
1&
#742
0&
#743
b101100010 I
1&
#744
0&
#745
b101100011 I
1&
#746
0&
#747
b101100100 I
1&
#748
0&
#749
b101100101 I
1&
#750
0&
#751
b101100110 I
1&
#752
0&
#753
b101100111 I
1&
#754
0&
#755
b101101000 I
1&
#756
0&
#757
b101101001 I
1&
#758
0&
#759
b101101010 I
1&
#760
0&
#761
b101101011 I
1&
#762
0&
#763
b101101100 I
1&
#764
0&
#765
b101101101 I
1&
#766
0&
#767
b101101110 I
1&
#768
0&
#769
b101101111 I
1&
#770
0&
#771
b101110000 I
1&
#772
0&
#773
b101110001 I
1&
#774
0&
#775
b101110010 I
1&
#776
0&
#777
b101110011 I
1&
#778
0&
#779
b101110100 I
1&
#780
0&
#781
b101110101 I
1&
#782
0&
#783
b101110110 I
1&
#784
0&
#785
b101110111 I
1&
#786
0&
#787
b101111000 I
1&
#788
0&
#789
b101111001 I
1&
#790
0&
#791
b101111010 I
1&
#792
0&
#793
b101111011 I
1&
#794
0&
#795
b101111100 I
1&
#796
0&
#797
b101111101 I
1&
#798
0&
#799
b101111110 I
1&
#800
0&
#801
b101111111 I
1&
#802
0&
#803
b110000000 I
1&
#804
0&
#805
b110000001 I
1&
#806
0&
#807
b110000010 I
1&
#808
0&
#809
b110000011 I
1&
#810
0&
#811
b110000100 I
1&
#812
0&
#813
b110000101 I
1&
#814
0&
#815
b110000110 I
1&
#816
0&
#817
b110000111 I
1&
#818
0&
#819
b110001000 I
1&
#820
0&
#821
b110001001 I
1&
#822
0&
#823
b110001010 I
1&
#824
0&
#825
b110001011 I
1&
#826
0&
#827
b110001100 I
1&
#828
0&
#829
b110001101 I
1&
#830
0&
#831
b110001110 I
1&
#832
0&
#833
b110001111 I
1&
#834
0&
#835
b110010000 I
1&
#836
0&
#837
b110010001 I
1&
#838
0&
#839
b110010010 I
1&
#840
0&
#841
b110010011 I
1&
#842
0&
#843
b110010100 I
1&
#844
0&
#845
b110010101 I
1&
#846
0&
#847
b110010110 I
1&
#848
0&
#849
b110010111 I
1&
#850
0&
#851
b110011000 I
1&
#852
0&
#853
b110011001 I
1&
#854
0&
#855
b110011010 I
1&
#856
0&
#857
b110011011 I
1&
#858
0&
#859
b110011100 I
1&
#860
0&
#861
b110011101 I
1&
#862
0&
#863
b110011110 I
1&
#864
0&
#865
b110011111 I
1&
#866
0&
#867
b110100000 I
1&
#868
0&
#869
b110100001 I
1&
#870
0&
#871
b110100010 I
1&
#872
0&
#873
b110100011 I
1&
#874
0&
#875
b110100100 I
1&
#876
0&
#877
b110100101 I
1&
#878
0&
#879
b110100110 I
1&
#880
0&
#881
b110100111 I
1&
#882
0&
#883
b110101000 I
1&
#884
0&
#885
b110101001 I
1&
#886
0&
#887
b110101010 I
1&
#888
0&
#889
b110101011 I
1&
#890
0&
#891
b110101100 I
1&
#892
0&
#893
b110101101 I
1&
#894
0&
#895
b110101110 I
1&
#896
0&
#897
b110101111 I
1&
#898
0&
#899
b110110000 I
1&
#900
0&
#901
b110110001 I
1&
#902
0&
#903
b110110010 I
1&
#904
0&
#905
b110110011 I
1&
#906
0&
#907
b110110100 I
1&
#908
0&
#909
b110110101 I
1&
#910
0&
#911
b110110110 I
1&
#912
0&
#913
b110110111 I
1&
#914
0&
#915
b110111000 I
1&
#916
0&
#917
b110111001 I
1&
#918
0&
#919
b110111010 I
1&
#920
0&
#921
b110111011 I
1&
#922
0&
#923
b110111100 I
1&
#924
0&
#925
b110111101 I
1&
#926
0&
#927
b110111110 I
1&
#928
0&
#929
b110111111 I
1&
#930
0&
#931
b111000000 I
1&
#932
0&
#933
b111000001 I
1&
#934
0&
#935
b111000010 I
1&
#936
0&
#937
b111000011 I
1&
#938
0&
#939
b111000100 I
1&
#940
0&
#941
b111000101 I
1&
#942
0&
#943
b111000110 I
1&
#944
0&
#945
b111000111 I
1&
#946
0&
#947
b111001000 I
1&
#948
0&
#949
b111001001 I
1&
#950
0&
#951
b111001010 I
1&
#952
0&
#953
b111001011 I
1&
#954
0&
#955
b111001100 I
1&
#956
0&
#957
b111001101 I
1&
#958
0&
#959
b111001110 I
1&
#960
0&
#961
b111001111 I
1&
#962
0&
#963
b111010000 I
1&
#964
0&
#965
b111010001 I
1&
#966
0&
#967
b111010010 I
1&
#968
0&
#969
b111010011 I
1&
#970
0&
#971
b111010100 I
1&
#972
0&
#973
b111010101 I
1&
#974
0&
#975
b111010110 I
1&
#976
0&
#977
b111010111 I
1&
#978
0&
#979
b111011000 I
1&
#980
0&
#981
b111011001 I
1&
#982
0&
#983
b111011010 I
1&
#984
0&
#985
b111011011 I
1&
#986
0&
#987
b111011100 I
1&
#988
0&
#989
b111011101 I
1&
#990
0&
#991
b111011110 I
1&
#992
0&
#993
b111011111 I
1&
#994
0&
#995
b111100000 I
1&
#996
0&
#997
b111100001 I
1&
#998
0&
#999
b111100010 I
1&
